1Sem/ISD/Quartus/Prat/Guiao6/simulation/qsim/DecoderDemo.msim.vcd
$comment
	File created using the following command:
		vcd file DecoderDemo.msim.vcd -direction
$end
$date
	Tue Dec 07 11:30:38 2021
$end
$version
	ModelSim Version 2020.1
$end
$timescale
	1ps
$end

$scope module dec4_16_vhd_vec_tst $end
$var wire 1 ! E0 $end
$var wire 1 " E1 $end
$var wire 1 # gnd $end
$var wire 1 $ x0 $end
$var wire 1 % x1 $end
$var wire 1 & x2 $end
$var wire 1 ' x3 $end
$var wire 1 ( y0 $end
$var wire 1 ) y1 $end
$var wire 1 * y2 $end
$var wire 1 + y3 $end
$var wire 1 , y4 $end
$var wire 1 - y5 $end
$var wire 1 . y6 $end
$var wire 1 / y7 $end
$var wire 1 0 y8 $end
$var wire 1 1 y9 $end
$var wire 1 2 y10 $end
$var wire 1 3 y11 $end
$var wire 1 4 y12 $end
$var wire 1 5 y13 $end
$var wire 1 6 y14 $end
$var wire 1 7 y15 $end

$scope module i1 $end
$var wire 1 8 gnd $end
$var wire 1 9 vcc $end
$var wire 1 : unknown $end
$var wire 1 ; devoe $end
$var wire 1 < devclrn $end
$var wire 1 = devpor $end
$var wire 1 > ww_devoe $end
$var wire 1 ? ww_devclrn $end
$var wire 1 @ ww_devpor $end
$var wire 1 A ww_y15 $end
$var wire 1 B ww_x0 $end
$var wire 1 C ww_x1 $end
$var wire 1 D ww_x2 $end
$var wire 1 E ww_x3 $end
$var wire 1 F ww_E1 $end
$var wire 1 G ww_E0 $end
$var wire 1 H \ww_gnd\ $end
$var wire 1 I ww_y14 $end
$var wire 1 J ww_y13 $end
$var wire 1 K ww_y12 $end
$var wire 1 L ww_y11 $end
$var wire 1 M ww_y10 $end
$var wire 1 N ww_y9 $end
$var wire 1 O ww_y8 $end
$var wire 1 P ww_y7 $end
$var wire 1 Q ww_y6 $end
$var wire 1 R ww_y5 $end
$var wire 1 S ww_y4 $end
$var wire 1 T ww_y3 $end
$var wire 1 U ww_y2 $end
$var wire 1 V ww_y1 $end
$var wire 1 W ww_y0 $end
$var wire 1 X \y15~output_o\ $end
$var wire 1 Y \y14~output_o\ $end
$var wire 1 Z \y13~output_o\ $end
$var wire 1 [ \y12~output_o\ $end
$var wire 1 \ \y11~output_o\ $end
$var wire 1 ] \y10~output_o\ $end
$var wire 1 ^ \y9~output_o\ $end
$var wire 1 _ \y8~output_o\ $end
$var wire 1 ` \y7~output_o\ $end
$var wire 1 a \y6~output_o\ $end
$var wire 1 b \y5~output_o\ $end
$var wire 1 c \y4~output_o\ $end
$var wire 1 d \y3~output_o\ $end
$var wire 1 e \y2~output_o\ $end
$var wire 1 f \y1~output_o\ $end
$var wire 1 g \y0~output_o\ $end
$var wire 1 h \x3~input_o\ $end
$var wire 1 i \x2~input_o\ $end
$var wire 1 j \E1~input_o\ $end
$var wire 1 k \E0~input_o\ $end
$var wire 1 l \inst13|1~combout\ $end
$var wire 1 m \x1~input_o\ $end
$var wire 1 n \x0~input_o\ $end
$var wire 1 o \gnd~input_o\ $end
$var wire 1 p \inst14|1~combout\ $end
$var wire 1 q \inst14|2~combout\ $end
$var wire 1 r \inst14|3~combout\ $end
$var wire 1 s \inst14|4~combout\ $end
$var wire 1 t \inst13|2~combout\ $end
$var wire 1 u \inst15|1~combout\ $end
$var wire 1 v \inst15|2~combout\ $end
$var wire 1 w \inst15|3~combout\ $end
$var wire 1 x \inst15|4~combout\ $end
$var wire 1 y \inst13|3~combout\ $end
$var wire 1 z \inst16|1~combout\ $end
$var wire 1 { \inst16|2~combout\ $end
$var wire 1 | \inst16|3~combout\ $end
$var wire 1 } \inst16|4~combout\ $end
$var wire 1 ~ \inst13|4~combout\ $end
$var wire 1 !! \inst17|1~combout\ $end
$var wire 1 "! \inst17|2~combout\ $end
$var wire 1 #! \inst17|3~combout\ $end
$var wire 1 $! \inst17|4~combout\ $end
$var wire 1 %! \ALT_INV_gnd~input_o\ $end
$var wire 1 &! \ALT_INV_x0~input_o\ $end
$var wire 1 '! \ALT_INV_x1~input_o\ $end
$var wire 1 (! \ALT_INV_E0~input_o\ $end
$var wire 1 )! \ALT_INV_E1~input_o\ $end
$var wire 1 *! \ALT_INV_x2~input_o\ $end
$var wire 1 +! \ALT_INV_x3~input_o\ $end
$var wire 1 ,! \inst13|ALT_INV_4~combout\ $end
$var wire 1 -! \inst13|ALT_INV_3~combout\ $end
$var wire 1 .! \inst13|ALT_INV_2~combout\ $end
$var wire 1 /! \inst13|ALT_INV_1~combout\ $end
$upscope $end
$upscope $end
$enddefinitions $end
#0
$dumpvars
0!
1"
0#
0$
0%
0&
0'
1(
0)
0*
0+
0,
0-
0.
0/
00
01
02
03
04
05
06
07
08
19
x:
1;
1<
1=
1>
1?
1@
0A
0B
0C
0D
0E
1F
0G
0H
0I
0J
0K
0L
0M
0N
0O
0P
0Q
0R
0S
0T
0U
0V
1W
0X
0Y
0Z
0[
0\
0]
0^
0_
0`
0a
0b
0c
0d
0e
0f
1g
0h
0i
1j
0k
0l
0m
0n
0o
0p
0q
0r
0s
0t
0u
0v
0w
0x
0y
0z
0{
0|
0}
1~
0!!
0"!
0#!
1$!
1%!
1&!
1'!
1(!
0)!
1*!
1+!
0,!
1-!
1.!
1/!
$end
#50000
1$
1B
1n
0&!
1#!
0$!
0g
1f
0W
1V
0(
1)
#100000
0$
1%
0B
1C
1m
0n
1&!
0'!
1"!
0#!
0f
1e
0V
1U
0)
1*
#150000
1$
1B
1n
0&!
1!!
0"!
0e
1d
0U
1T
0*
1+
#200000
0$
0%
1&
0B
0C
1D
1i
0m
0n
1&!
1'!
0*!
1y
0~
0!!
1$!
1,!
0-!
1}
0$!
1g
0d
1W
0T
1(
0+
0g
1c
0W
1S
0(
1,
#250000
1$
1B
1n
0&!
1|
0}
0c
1b
0S
1R
0,
1-
#300000
0$
1%
0B
1C
1m
0n
1&!
0'!
1{
0|
0b
1a
0R
1Q
0-
1.
#350000
1$
1B
1n
0&!
1z
0{
0a
1`
0Q
1P
0.
1/
#400000
0$
0%
0&
1'
0B
0C
0D
1E
1h
0i
0m
0n
1&!
1'!
1*!
0+!
1t
0y
0z
1}
1-!
0.!
1x
0}
1c
0`
1S
0P
1,
0/
0c
1_
0S
1O
0,
10
#450000
1$
1B
1n
0&!
1w
0x
0_
1^
0O
1N
00
11
#500000
0$
1%
0B
1C
1m
0n
1&!
0'!
1v
0w
0^
1]
0N
1M
01
12
#550000
1$
1B
1n
0&!
1u
0v
0]
1\
0M
1L
02
13
#600000
0$
0%
1&
0B
0C
1D
1i
0m
0n
1&!
1'!
0*!
1l
0t
0u
1x
1.!
0/!
1s
0x
1_
0\
1O
0L
10
03
0_
1[
0O
1K
00
14
#650000
1$
1B
1n
0&!
1r
0s
0[
1Z
0K
1J
04
15
#700000
0$
1%
0B
1C
1m
0n
1&!
0'!
1q
0r
0Z
1Y
0J
1I
05
16
#750000
1$
1B
1n
0&!
1p
0q
0Y
1X
0I
1A
06
17
#800000
0$
0%
0&
0'
0B
0C
0D
0E
0h
0i
0m
0n
1&!
1'!
1*!
1+!
0l
1~
0p
1s
0,!
1/!
0s
1$!
1[
0X
1K
0A
14
07
1g
0[
1W
0K
1(
04
#850000
1$
1B
1n
0&!
1#!
0$!
0g
1f
0W
1V
0(
1)
#900000
0$
1%
0B
1C
1m
0n
1&!
0'!
1"!
0#!
0f
1e
0V
1U
0)
1*
#950000
1$
1B
1n
0&!
1!!
0"!
0e
1d
0U
1T
0*
1+
