1Sem/ISD/Quartus/Prat/Guiao6/pt3/simulation/qsim/EncoderDemo.msim.vcd
$comment
	File created using the following command:
		vcd file EncoderDemo.msim.vcd -direction
$end
$date
	Tue Dec 07 12:50:04 2021
$end
$version
	ModelSim Version 2020.1
$end
$timescale
	1ps
$end

$scope module encoderdemo_vhd_vec_tst $end
$var wire 1 ! A0 $end
$var wire 1 " A1 $end
$var wire 1 # A2 $end
$var wire 1 $ y1 $end
$var wire 1 % y2 $end
$var wire 1 & y3 $end
$var wire 1 ' y4 $end
$var wire 1 ( y5 $end
$var wire 1 ) y6 $end
$var wire 1 * y7 $end

$scope module i1 $end
$var wire 1 + gnd $end
$var wire 1 , vcc $end
$var wire 1 - unknown $end
$var wire 1 . devoe $end
$var wire 1 / devclrn $end
$var wire 1 0 devpor $end
$var wire 1 1 ww_devoe $end
$var wire 1 2 ww_devclrn $end
$var wire 1 3 ww_devpor $end
$var wire 1 4 ww_A2 $end
$var wire 1 5 ww_y7 $end
$var wire 1 6 ww_y5 $end
$var wire 1 7 ww_y4 $end
$var wire 1 8 ww_y6 $end
$var wire 1 9 ww_A1 $end
$var wire 1 : ww_y2 $end
$var wire 1 ; ww_y3 $end
$var wire 1 < ww_A0 $end
$var wire 1 = ww_y1 $end
$var wire 1 > \A2~output_o\ $end
$var wire 1 ? \A1~output_o\ $end
$var wire 1 @ \A0~output_o\ $end
$var wire 1 A \y4~input_o\ $end
$var wire 1 B \y6~input_o\ $end
$var wire 1 C \y7~input_o\ $end
$var wire 1 D \y5~input_o\ $end
$var wire 1 E \inst~combout\ $end
$var wire 1 F \y2~input_o\ $end
$var wire 1 G \y3~input_o\ $end
$var wire 1 H \inst1~combout\ $end
$var wire 1 I \y1~input_o\ $end
$var wire 1 J \inst2~combout\ $end
$var wire 1 K \ALT_INV_y4~input_o\ $end
$var wire 1 L \ALT_INV_y6~input_o\ $end
$var wire 1 M \ALT_INV_y7~input_o\ $end
$var wire 1 N \ALT_INV_y5~input_o\ $end
$var wire 1 O \ALT_INV_y2~input_o\ $end
$var wire 1 P \ALT_INV_y3~input_o\ $end
$var wire 1 Q \ALT_INV_y1~input_o\ $end
$upscope $end
$upscope $end
$enddefinitions $end
#0
$dumpvars
1!
1"
1#
0$
0%
1&
1'
0(
1)
1*
0+
1,
x-
1.
1/
10
11
12
13
14
15
06
17
18
19
0:
1;
1<
0=
1>
1?
1@
1A
1B
1C
0D
1E
0F
1G
1H
0I
1J
0K
0L
0M
1N
1O
0P
1Q
$end
#60000
1(
0'
0&
1%
16
07
0;
1:
1F
0G
0A
1D
0N
1K
1P
0O
#120000
0(
0*
06
05
0C
0D
1N
1M
0J
0@
0<
0!
#180000
1*
15
1C
0M
1J
1@
1<
1!
#240000
1(
1&
1$
16
1;
1=
1I
1G
1D
0N
0P
0Q
#300000
0&
0$
0*
0%
0;
0=
05
0:
0F
0C
0I
0G
1P
1Q
1M
1O
#360000
1&
1%
1;
1:
1F
1G
0P
0O
#420000
0%
1*
0(
0:
15
06
0D
1C
0F
1O
0M
1N
#480000
1%
0*
0&
1:
05
0;
0G
0C
1F
0O
1M
1P
0J
0@
0<
0!
#540000
1(
1$
1'
0)
16
1=
17
08
0B
1A
1I
1D
0N
0Q
0K
1L
1J
1@
1<
1!
#600000
0(
0$
1)
0%
1*
06
0=
18
0:
15
1C
0F
1B
0I
0D
1N
1Q
0L
1O
0M
#660000
0)
1%
0*
0'
08
1:
05
07
0A
0C
1F
0B
1L
0O
1M
1K
0J
0E
0>
0@
04
0<
0#
0!
#720000
1)
1'
1(
18
17
16
1D
1A
1B
0L
0K
0N
1J
1E
1>
1@
14
1<
1#
1!
#780000
0%
1*
1$
0:
15
1=
1I
1C
0F
1O
0M
0Q
#840000
0*
0(
05
06
0D
0C
1M
1N
#900000
1&
1;
1G
0P
#960000
0&
0)
0;
08
0B
0G
1P
1L
0H
0?
09
0"
