1Sem/ISD/IsdSim2/simulation/qsim/MEF.msim.vcd
$comment
	File created using the following command:
		vcd file MEF.msim.vcd -direction
$end
$date
	Wed Feb 09 15:37:42 2022
$end
$version
	ModelSim Version 2020.1
$end
$timescale
	1ps
$end

$scope module mef_vhd_vec_tst $end
$var wire 1 ! Clock $end
$var wire 1 " Q [1] $end
$var wire 1 # Q [0] $end
$var wire 1 $ Reset $end
$var wire 1 % X $end

$scope module i1 $end
$var wire 1 & gnd $end
$var wire 1 ' vcc $end
$var wire 1 ( unknown $end
$var wire 1 ) devoe $end
$var wire 1 * devclrn $end
$var wire 1 + devpor $end
$var wire 1 , ww_devoe $end
$var wire 1 - ww_devclrn $end
$var wire 1 . ww_devpor $end
$var wire 1 / ww_Q [1] $end
$var wire 1 0 ww_Q [0] $end
$var wire 1 1 ww_X $end
$var wire 1 2 ww_Reset $end
$var wire 1 3 ww_Clock $end
$var wire 1 4 \X~input_o\ $end
$var wire 1 5 \Reset~input_o\ $end
$var wire 1 6 \Clock~input_o\ $end
$var wire 1 7 \Q[1]~output_o\ $end
$var wire 1 8 \Q[0]~output_o\ $end
$upscope $end
$upscope $end
$enddefinitions $end
#0
$dumpvars
0!
1$
1%
0&
1'
x(
1)
1*
1+
1,
1-
1.
11
12
03
14
15
06
07
08
0/
00
0"
0#
$end
#30000
1!
13
16
#60000
0!
03
06
#90000
1!
13
16
#120000
0!
0%
03
01
04
06
#150000
1!
13
16
#180000
0!
1%
03
11
14
06
#210000
1!
13
16
#240000
0!
0%
03
01
04
06
#270000
1!
13
16
#300000
0!
03
06
#330000
1!
13
16
#360000
0!
1%
03
11
14
06
#390000
1!
13
16
#420000
0!
0%
03
01
04
06
#450000
1!
13
16
#480000
0!
1%
03
11
14
06
#510000
1!
13
16
#540000
0!
03
06
#570000
1!
13
16
#600000
0!
0%
03
01
04
06
#630000
1!
13
16
#660000
0!
03
06
#690000
1!
13
16
#720000
0!
03
06
#750000
1!
13
16
#780000
0!
1%
03
11
14
06
#810000
1!
13
16
#840000
0!
0%
03
01
04
06
#870000
1!
13
16
#900000
0!
1%
03
11
14
06
#930000
1!
13
16
#960000
0!
0%
03
01
04
06
#990000
1!
13
16
