2Sem/Lsd/1Pratica/Parte1/simulation/qsim/GateDemo.msim.vcd
$comment
	File created using the following command:
		vcd file GateDemo.msim.vcd -direction
$end
$date
	Tue Mar 08 10:13:24 2022
$end
$version
	ModelSim Version 2020.1
$end
$timescale
	1ps
$end

$scope module gatedemo_vhd_vec_tst $end
$var wire 1 ! LEDR [0] $end
$var wire 1 " SW [1] $end
$var wire 1 # SW [0] $end

$scope module i1 $end
$var wire 1 $ gnd $end
$var wire 1 % vcc $end
$var wire 1 & unknown $end
$var wire 1 ' devoe $end
$var wire 1 ( devclrn $end
$var wire 1 ) devpor $end
$var wire 1 * ww_devoe $end
$var wire 1 + ww_devclrn $end
$var wire 1 , ww_devpor $end
$var wire 1 - ww_LEDR [0] $end
$var wire 1 . ww_SW [1] $end
$var wire 1 / ww_SW [0] $end
$var wire 1 0 \LEDR[0]~output_o\ $end
$var wire 1 1 \SW[1]~input_o\ $end
$var wire 1 2 \SW[0]~input_o\ $end
$var wire 1 3 \inst~combout\ $end
$upscope $end
$upscope $end
$enddefinitions $end
#0
$dumpvars
0$
1%
x&
1'
1(
1)
1*
1+
1,
00
01
12
03
0"
1#
0-
0.
1/
0!
$end
#60000
1"
0#
0/
1.
11
02
#180000
1#
1/
12
13
10
1-
1!
#360000
0#
0/
02
03
00
0-
0!
#420000
1#
0"
1/
0.
01
12
#540000
1"
1.
11
13
10
1-
1!
#600000
0#
0/
02
03
00
0-
0!
#660000
0"
0.
01
#720000
1"
1#
1/
1.
11
12
13
10
1-
1!
#780000
0"
0.
01
03
00
0-
0!
#840000
0#
0/
02
#900000
1"
1.
11
#960000
1#
1/
12
13
10
1-
1!
