2Sem/Lsd/4Pratica/2Parte/simulation/qsim/Register_Demo.msim.vcd
$comment
	File created using the following command:
		vcd file Register_Demo.msim.vcd -direction
$end
$date
	Tue Apr 05 11:12:08 2022
$end
$version
	ModelSim Version 2020.1
$end
$timescale
	1ps
$end

$scope module register8_vhd_vec_tst $end
$var wire 1 ! clk $end
$var wire 1 " d [7] $end
$var wire 1 # d [6] $end
$var wire 1 $ d [5] $end
$var wire 1 % d [4] $end
$var wire 1 & d [3] $end
$var wire 1 ' d [2] $end
$var wire 1 ( d [1] $end
$var wire 1 ) d [0] $end
$var wire 1 * q [7] $end
$var wire 1 + q [6] $end
$var wire 1 , q [5] $end
$var wire 1 - q [4] $end
$var wire 1 . q [3] $end
$var wire 1 / q [2] $end
$var wire 1 0 q [1] $end
$var wire 1 1 q [0] $end
$var wire 1 2 reset $end
$var wire 1 3 set $end

$scope module i1 $end
$var wire 1 4 gnd $end
$var wire 1 5 vcc $end
$var wire 1 6 unknown $end
$var wire 1 7 devoe $end
$var wire 1 8 devclrn $end
$var wire 1 9 devpor $end
$var wire 1 : ww_devoe $end
$var wire 1 ; ww_devclrn $end
$var wire 1 < ww_devpor $end
$var wire 1 = ww_clk $end
$var wire 1 > ww_d [7] $end
$var wire 1 ? ww_d [6] $end
$var wire 1 @ ww_d [5] $end
$var wire 1 A ww_d [4] $end
$var wire 1 B ww_d [3] $end
$var wire 1 C ww_d [2] $end
$var wire 1 D ww_d [1] $end
$var wire 1 E ww_d [0] $end
$var wire 1 F ww_set $end
$var wire 1 G ww_reset $end
$var wire 1 H ww_q [7] $end
$var wire 1 I ww_q [6] $end
$var wire 1 J ww_q [5] $end
$var wire 1 K ww_q [4] $end
$var wire 1 L ww_q [3] $end
$var wire 1 M ww_q [2] $end
$var wire 1 N ww_q [1] $end
$var wire 1 O ww_q [0] $end
$var wire 1 P \q[0]~output_o\ $end
$var wire 1 Q \q[1]~output_o\ $end
$var wire 1 R \q[2]~output_o\ $end
$var wire 1 S \q[3]~output_o\ $end
$var wire 1 T \q[4]~output_o\ $end
$var wire 1 U \q[5]~output_o\ $end
$var wire 1 V \q[6]~output_o\ $end
$var wire 1 W \q[7]~output_o\ $end
$var wire 1 X \clk~input_o\ $end
$var wire 1 Y \set~input_o\ $end
$var wire 1 Z \d[0]~input_o\ $end
$var wire 1 [ \reset~input_o\ $end
$var wire 1 \ \q~0_combout\ $end
$var wire 1 ] \q[0]~reg0_q\ $end
$var wire 1 ^ \d[1]~input_o\ $end
$var wire 1 _ \q~1_combout\ $end
$var wire 1 ` \q[1]~reg0_q\ $end
$var wire 1 a \d[2]~input_o\ $end
$var wire 1 b \q~2_combout\ $end
$var wire 1 c \q[2]~reg0_q\ $end
$var wire 1 d \d[3]~input_o\ $end
$var wire 1 e \q~3_combout\ $end
$var wire 1 f \q[3]~reg0_q\ $end
$var wire 1 g \d[4]~input_o\ $end
$var wire 1 h \q~4_combout\ $end
$var wire 1 i \q[4]~reg0_q\ $end
$var wire 1 j \d[5]~input_o\ $end
$var wire 1 k \q~5_combout\ $end
$var wire 1 l \q[5]~reg0_q\ $end
$var wire 1 m \d[6]~input_o\ $end
$var wire 1 n \q~6_combout\ $end
$var wire 1 o \q[6]~reg0_q\ $end
$var wire 1 p \d[7]~input_o\ $end
$var wire 1 q \q~7_combout\ $end
$var wire 1 r \q[7]~reg0_q\ $end
$upscope $end
$upscope $end
$enddefinitions $end
#0
$dumpvars
0!
12
13
04
15
x6
17
18
19
1:
1;
1<
0=
1F
1G
0P
0Q
0R
0S
0T
0U
0V
0W
0X
1Y
1Z
1[
0\
0]
0^
0_
0`
0a
0b
0c
1d
0e
0f
0g
0h
0i
1j
0k
0l
1m
0n
0o
0p
0q
0r
0"
1#
1$
0%
1&
0'
0(
1)
0*
0+
0,
0-
0.
0/
00
01
0>
1?
1@
0A
1B
0C
0D
1E
0H
0I
0J
0K
0L
0M
0N
0O
$end
#15000
1!
1=
1X
#30000
0!
0=
0X
#45000
1!
1=
1X
#60000
0!
0=
0X
#70000
03
1"
0$
0&
1(
0F
1D
0B
0@
1>
1p
0j
0d
1^
0Y
#75000
1!
1=
1X
#90000
0!
0=
0X
#105000
1!
1=
1X
#120000
0!
0=
0X
#135000
1!
1=
1X
#140000
13
0"
1&
1%
1'
0)
1F
0E
1C
1B
1A
0>
0p
1g
1d
1a
0Z
1Y
#150000
0!
0=
0X
#160000
02
0G
0[
1\
1_
1b
1e
1h
1k
1n
1q
#165000
1!
1=
1X
1]
1`
1c
1f
1i
1l
1o
1r
1W
1V
1U
1T
1S
1R
1Q
1P
1H
1I
1J
1K
1L
1M
1N
1O
11
10
1/
1.
1-
1,
1+
1*
#180000
0!
0=
0X
#195000
1!
1=
1X
#210000
0!
03
0&
0%
0'
1)
0(
0=
0F
1E
0D
0C
0B
0A
0g
0d
0a
0^
1Z
0Y
0X
0k
0q
0_
0b
0e
0h
#225000
1!
1=
1X
0`
0c
0f
0i
0l
0r
0W
0U
0T
0S
0R
0Q
0H
0J
0K
0L
0M
0N
00
0/
0.
0-
0,
0*
#240000
0!
12
0=
1G
1[
0X
0\
0n
#255000
1!
1=
1X
0]
0o
0V
0P
0I
0O
01
0+
#270000
0!
0=
0X
#280000
1%
1"
0#
1A
0?
1>
1p
0m
1g
#285000
1!
1=
1X
#300000
0!
0=
0X
#315000
1!
1=
1X
#320000
02
0G
0[
1\
1h
1q
#330000
0!
0=
0X
#345000
1!
1=
1X
1]
1i
1r
1W
1T
1P
1H
1K
1O
11
1-
1*
#350000
1#
1(
1D
1?
1m
1^
1_
1n
#360000
0!
0=
0X
#375000
1!
1=
1X
1`
1o
1V
1Q
1I
1N
10
1+
#390000
0!
0=
0X
#400000
12
1G
1[
0\
0_
0h
0n
0q
#405000
1!
1=
1X
0]
0`
0i
0o
0r
0W
0V
0T
0Q
0P
0H
0I
0K
0N
0O
01
00
0-
0+
0*
#420000
0!
0#
0"
0)
1$
0=
0E
1@
0?
0>
0p
0m
1j
0Z
0X
#435000
1!
1=
1X
#450000
0!
0=
0X
#465000
1!
1=
1X
#480000
0!
02
0=
0G
0[
0X
1_
1h
1k
#490000
1#
0$
0(
13
1&
0D
1B
0@
1?
1F
1Y
1m
0j
1d
0^
1\
1b
1e
1n
1q
#495000
1!
1=
1X
1]
1`
1c
1f
1i
1l
1o
1r
1W
1V
1U
1T
1S
1R
1Q
1P
1H
1I
1J
1K
1L
1M
1N
1O
11
10
1/
1.
1-
1,
1+
1*
#510000
0!
0=
0X
#525000
1!
1=
1X
#540000
0!
0=
0X
#555000
1!
1=
1X
#560000
1(
03
12
0%
1D
0A
0F
1G
1[
0Y
0g
1^
0\
0_
0b
0e
0h
0k
0n
0q
#570000
0!
0=
0X
#585000
1!
1=
1X
0]
0`
0c
0f
0i
0l
0o
0r
0W
0V
0U
0T
0S
0R
0Q
0P
0H
0I
0J
0K
0L
0M
0N
0O
01
00
0/
0.
0-
0,
0+
0*
#600000
0!
0=
0X
#615000
1!
1=
1X
#630000
0!
0(
13
1%
0#
0=
0D
1A
0?
1F
1Y
0m
1g
0^
0X
#640000
02
0G
0[
1\
1_
1b
1e
1h
1k
1n
1q
#645000
1!
1=
1X
1]
1`
1c
1f
1i
1l
1o
1r
1W
1V
1U
1T
1S
1R
1Q
1P
1H
1I
1J
1K
1L
1M
1N
1O
11
10
1/
1.
1-
1,
1+
1*
#660000
0!
0=
0X
#675000
1!
1=
1X
#690000
0!
0=
0X
#700000
0%
1$
0&
1"
0B
0A
1@
1>
1p
1j
0g
0d
#705000
1!
1=
1X
#720000
0!
12
0=
1G
1[
0X
0\
0_
0b
0e
0h
0k
0n
0q
#735000
1!
1=
1X
0]
0`
0c
0f
0i
0l
0o
0r
0W
0V
0U
0T
0S
0R
0Q
0P
0H
0I
0J
0K
0L
0M
0N
0O
01
00
0/
0.
0-
0,
0+
0*
#750000
0!
0=
0X
#765000
1!
1=
1X
#770000
1%
0"
1(
03
1#
1)
1E
1D
1A
1?
0>
0F
0Y
0p
1m
1g
1^
1Z
#780000
0!
0=
0X
#795000
1!
1=
1X
#800000
02
0G
0[
1\
1_
1h
1k
1n
#810000
0!
0=
0X
#825000
1!
1=
1X
1]
1`
1i
1l
1o
1V
1U
1T
1Q
1P
1I
1J
1K
1N
1O
11
10
1-
1,
1+
#840000
0!
0%
0(
0$
1&
1'
0=
0D
1C
1B
0A
0@
0j
0g
1d
1a
0^
0X
0_
1b
1e
0h
0k
#855000
1!
1=
1X
0`
1c
1f
0i
0l
0U
0T
1S
1R
0Q
0J
0K
1L
1M
0N
00
1/
1.
0-
0,
#870000
0!
0=
0X
#885000
1!
1=
1X
#900000
0!
0=
0X
#910000
1%
1(
0&
0'
1"
0#
1D
0C
0B
1A
0?
1>
1p
0m
1g
0d
0a
1^
1_
0b
0e
1h
0n
1q
#915000
1!
1=
1X
1`
0c
0f
1i
0o
1r
1W
0V
1T
0S
0R
1Q
1H
0I
1K
0L
0M
1N
10
0/
0.
1-
0+
1*
#930000
0!
0=
0X
#945000
1!
1=
1X
#960000
0!
0=
0X
#975000
1!
1=
1X
#980000
0%
1#
13
0)
0E
0A
1?
1F
1Y
1m
0g
0Z
1b
1e
1k
1n
#990000
0!
0=
0X
