2Sem/Lsd/5Pratica/1Parte/simulation/qsim/CmpN_Demo.msim.vcd
$comment
	File created using the following command:
		vcd file CmpN_Demo.msim.vcd -direction
$end
$date
	Tue Apr 19 10:09:21 2022
$end
$version
	ModelSim Version 2020.1
$end
$timescale
	1ps
$end

$scope module cmpn_vhd_vec_tst $end
$var wire 1 ! equal $end
$var wire 1 " input0 [8] $end
$var wire 1 # input0 [7] $end
$var wire 1 $ input0 [6] $end
$var wire 1 % input0 [5] $end
$var wire 1 & input0 [4] $end
$var wire 1 ' input0 [3] $end
$var wire 1 ( input0 [2] $end
$var wire 1 ) input0 [1] $end
$var wire 1 * input0 [0] $end
$var wire 1 + input1 [8] $end
$var wire 1 , input1 [7] $end
$var wire 1 - input1 [6] $end
$var wire 1 . input1 [5] $end
$var wire 1 / input1 [4] $end
$var wire 1 0 input1 [3] $end
$var wire 1 1 input1 [2] $end
$var wire 1 2 input1 [1] $end
$var wire 1 3 input1 [0] $end
$var wire 1 4 ltSigned $end
$var wire 1 5 ltUnsigned $end
$var wire 1 6 notEqual $end

$scope module i1 $end
$var wire 1 7 gnd $end
$var wire 1 8 vcc $end
$var wire 1 9 unknown $end
$var wire 1 : devoe $end
$var wire 1 ; devclrn $end
$var wire 1 < devpor $end
$var wire 1 = ww_devoe $end
$var wire 1 > ww_devclrn $end
$var wire 1 ? ww_devpor $end
$var wire 1 @ ww_input0 [8] $end
$var wire 1 A ww_input0 [7] $end
$var wire 1 B ww_input0 [6] $end
$var wire 1 C ww_input0 [5] $end
$var wire 1 D ww_input0 [4] $end
$var wire 1 E ww_input0 [3] $end
$var wire 1 F ww_input0 [2] $end
$var wire 1 G ww_input0 [1] $end
$var wire 1 H ww_input0 [0] $end
$var wire 1 I ww_input1 [8] $end
$var wire 1 J ww_input1 [7] $end
$var wire 1 K ww_input1 [6] $end
$var wire 1 L ww_input1 [5] $end
$var wire 1 M ww_input1 [4] $end
$var wire 1 N ww_input1 [3] $end
$var wire 1 O ww_input1 [2] $end
$var wire 1 P ww_input1 [1] $end
$var wire 1 Q ww_input1 [0] $end
$var wire 1 R ww_equal $end
$var wire 1 S ww_notEqual $end
$var wire 1 T ww_ltSigned $end
$var wire 1 U ww_ltUnsigned $end
$var wire 1 V \equal~output_o\ $end
$var wire 1 W \notEqual~output_o\ $end
$var wire 1 X \ltSigned~output_o\ $end
$var wire 1 Y \ltUnsigned~output_o\ $end
$var wire 1 Z \input0[0]~input_o\ $end
$var wire 1 [ \input0[1]~input_o\ $end
$var wire 1 \ \input1[1]~input_o\ $end
$var wire 1 ] \input1[0]~input_o\ $end
$var wire 1 ^ \Equal0~0_combout\ $end
$var wire 1 _ \input0[2]~input_o\ $end
$var wire 1 ` \input0[3]~input_o\ $end
$var wire 1 a \input1[3]~input_o\ $end
$var wire 1 b \input1[2]~input_o\ $end
$var wire 1 c \Equal0~1_combout\ $end
$var wire 1 d \input0[4]~input_o\ $end
$var wire 1 e \input0[5]~input_o\ $end
$var wire 1 f \input1[5]~input_o\ $end
$var wire 1 g \input1[4]~input_o\ $end
$var wire 1 h \Equal0~2_combout\ $end
$var wire 1 i \input0[6]~input_o\ $end
$var wire 1 j \input0[7]~input_o\ $end
$var wire 1 k \input1[7]~input_o\ $end
$var wire 1 l \input1[6]~input_o\ $end
$var wire 1 m \Equal0~3_combout\ $end
$var wire 1 n \Equal0~4_combout\ $end
$var wire 1 o \input0[8]~input_o\ $end
$var wire 1 p \input1[8]~input_o\ $end
$var wire 1 q \Equal0~5_combout\ $end
$var wire 1 r \LessThan0~1_cout\ $end
$var wire 1 s \LessThan0~3_cout\ $end
$var wire 1 t \LessThan0~5_cout\ $end
$var wire 1 u \LessThan0~7_cout\ $end
$var wire 1 v \LessThan0~9_cout\ $end
$var wire 1 w \LessThan0~11_cout\ $end
$var wire 1 x \LessThan0~13_cout\ $end
$var wire 1 y \LessThan0~15_cout\ $end
$var wire 1 z \LessThan0~16_combout\ $end
$var wire 1 { \LessThan1~1_cout\ $end
$var wire 1 | \LessThan1~3_cout\ $end
$var wire 1 } \LessThan1~5_cout\ $end
$var wire 1 ~ \LessThan1~7_cout\ $end
$var wire 1 !! \LessThan1~9_cout\ $end
$var wire 1 "! \LessThan1~11_cout\ $end
$var wire 1 #! \LessThan1~13_cout\ $end
$var wire 1 $! \LessThan1~15_cout\ $end
$var wire 1 %! \LessThan1~16_combout\ $end
$var wire 1 &! \ALT_INV_Equal0~5_combout\ $end
$upscope $end
$upscope $end
$enddefinitions $end
#0
$dumpvars
0!
04
05
16
07
18
x9
1:
1;
1<
1=
1>
1?
0R
1S
0T
0U
0V
1W
0X
0Y
0Z
0[
1\
0]
0^
0_
0`
1a
0b
0c
0d
1e
0f
0g
0h
1i
1j
1k
0l
0m
0n
1o
1p
0q
0r
0s
1t
0u
1v
1w
0x
1y
0z
0{
0|
1}
0~
1!!
1"!
0#!
1$!
0%!
1&!
1"
1#
1$
1%
0&
0'
0(
0)
0*
1+
1,
0-
0.
0/
10
01
12
03
1@
1A
1B
1C
0D
0E
0F
0G
0H
1I
1J
0K
0L
0M
1N
0O
1P
0Q
$end
#60000
0#
0%
1&
1'
1(
1)
0+
1-
1.
1/
11
13
1G
1F
1E
1D
0C
0A
1Q
1O
1M
1L
1K
0I
0p
1l
1f
1g
1b
1]
0j
0e
1d
1`
1_
1[
1s
1|
0y
0$!
1r
1{
1c
0w
0"!
1z
1#!
1x
0|
0s
0}
0t
1u
1~
1t
1}
1X
0~
0u
0!!
0v
1T
14
1v
1!!
#120000
1#
1%
0&
0'
0-
0.
0/
01
1*
00
02
1H
0E
0D
1C
1A
0P
0O
0N
0M
0L
0K
0l
0f
0g
0a
0b
0\
1j
1e
0d
0`
1Z
0r
0{
1s
1|
0t
0}
0c
1w
1"!
0x
0#!
1$!
1y
1~
1u
0v
0!!
#180000
0%
1&
1'
1+
0$
0,
1E
1D
0C
0B
0J
1I
1p
0k
0i
0e
1d
1`
0z
0X
0T
04
#240000
0&
1-
1/
0*
10
12
0H
0D
1P
1N
1M
1K
1l
1g
1a
1\
0d
0Z
1r
1{
1v
1!!
1x
1#!
0"!
0w
0|
0s
#300000
1&
0-
0/
1*
00
02
1%
0'
0+
1.
11
0(
03
1H
0F
0E
1D
1C
0Q
0P
1O
0N
0M
1L
0K
0I
0p
0l
1f
0g
0a
1b
0\
0]
1e
1d
0`
0_
1Z
0r
0{
1s
1|
1t
1}
0v
0!!
1z
1"!
1w
0~
0u
0x
0#!
1X
1T
14
#360000
1-
1/
12
0%
1'
1$
1,
0)
1P
1M
1K
1J
0G
1E
0C
1B
1i
0e
1`
0[
1k
1l
1g
1\
1v
1!!
0s
0|
1u
1~
0w
0"!
1m
1#!
1x
0!!
0v
0y
0$!
#420000
1%
0'
1)
0*
1+
1(
0H
1G
1F
0E
1C
1I
1p
1e
0`
1_
1[
0Z
1^
1s
1|
1c
0u
0~
1h
1w
1"!
1%!
0#!
0x
1!!
1v
0}
0t
1n
1q
1u
1~
0w
0"!
1y
1$!
1Y
0&!
0%!
0z
1#!
1x
0!!
0v
1U
15
1w
1"!
0y
0$!
1V
0W
1%!
1z
0#!
0x
1R
0X
0Y
0S
1!
1y
1$!
0T
0U
06
04
05
0%!
0z
1X
1Y
1T
1U
14
15
0X
0Y
0T
0U
04
05
#480000
0$
0,
0&
10
13
0#
0"
0D
0B
0A
0@
1Q
1N
0J
0k
1a
1]
0o
0j
0i
0d
0h
1v
1!!
1x
1#!
0q
1%!
0^
1r
1{
0c
0u
0~
0m
1&!
0|
0s
0$!
0y
0"!
0w
0n
1t
1}
1Y
0V
1W
1U
0R
1S
15
0!
16
#540000
00
03
1#
1"
1'
0)
1*
0(
0-
0.
0Q
0N
0L
0K
1H
0G
0F
1E
1A
1@
1o
1j
1`
0_
0[
1Z
0l
0f
0a
0]
1w
1"!
0r
0{
1u
1~
1y
1$!
1z
0%!
0z
0#!
0x
1X
1T
0X
0Y
14
0T
0U
04
05
#600000
0#
0'
1)
0*
1(
1.
1$
1,
1&
0+
0H
1G
1F
0E
1D
1B
0A
1L
1J
0I
0p
1k
1f
0j
1i
1d
0`
1_
1[
0Z
1^
1s
1|
1c
0u
0~
0v
0!!
1h
0w
0"!
0y
0$!
1z
1"!
1w
1!!
1v
0}
0t
1u
1~
0w
0"!
1X
0!!
0v
1T
14
1w
1"!
#660000
1#
0)
1*
0.
0,
0&
10
13
0"
1-
0%
02
01
1H
0G
0D
0C
1A
0@
1Q
0P
0O
1N
0L
1K
0J
0k
1l
0f
1a
0b
0\
1]
0o
1j
0e
0d
0[
1Z
1v
1!!
1%!
0c
0u
0~
0h
1y
1$!
0%!
0z
0"!
0w
1x
1#!
1Y
1U
0X
0Y
15
0T
0U
04
05
#720000
0#
1.
03
1+
0A
0Q
1L
1I
1p
1f
0]
0j
1m
0y
0$!
0^
1%!
1Y
1U
15
#780000
13
1)
0*
1&
0-
1%
12
11
1'
0$
1Q
1P
1O
0K
0H
1G
1E
1D
1C
0B
0i
1e
1d
1`
1[
0Z
0l
1b
1\
1]
1r
1{
1c
1u
1~
1h
0!!
0v
0|
0s
1t
1}
1w
1"!
0#!
0x
0~
0u
1v
1!!
1y
1$!
0"!
0w
1x
1#!
0$!
0y
#840000
0)
1-
02
1$
1#
0.
1,
0G
1B
1A
0P
0L
1K
1J
1k
1l
0f
0\
1j
1i
0[
0h
1w
1"!
0#!
0x
1y
1$!
#900000
1)
0-
0$
0%
0'
0+
0(
1G
0F
0E
0C
0B
0K
0I
0p
0l
0i
0e
0`
0_
1[
1s
1|
0c
1h
0w
0"!
0%!
1#!
1x
0y
0$!
0Y
1%!
1z
0U
05
1X
1Y
1T
1U
14
15
#960000
0)
1-
1'
1+
1(
1.
03
1*
0&
01
00
1"
0/
1H
0G
1F
1E
0D
1@
0Q
0O
0N
0M
1L
1K
1I
1p
1l
1f
0g
0a
0b
0]
1o
0d
1`
1_
0[
1Z
0s
0|
0r
0{
0t
0}
1u
1~
0h
0m
0!!
0v
1|
1s
